[  "codevault",
   "dense_linear_algebra", 
   "dense_linear_algebra/gemm/cublas",
   "dense_linear_algebra/gemm/clblas",
   "dense_linear_algebra/lud/mkl",
   "dense_linear_algebra/lud/cusolver",
   "dense_linear_algebra/lud/cublas",
   "dense_linear_algebra/lud/cusolver_mkl",
   "dense_linear_algebra/lud/cublas_mkl",
   "dense_linear_algebra/kmeans/kmeans_cuda",
   "dense_linear_algebra/kmeans/kmeans_rodinia_opencl",
   "dense_linear_algebra/kmeans/kmeans_openmp",
   "monte_carlo_methods",
   "monte_carlo_methods/integral_basic",
   "monte_carlo_methods/pi",
   "structured_grids",
   "structured_grids/JTC/JTC_openmp",
   "structured_grids/JTC/JTC_mpi_openmp",
   "unstructured_grids",
   "unstructured_grids/halo_exchange",
   "spectral_methods",
   "n-body_methods",
   "n-body_methods/hermite4",
   "n-body_methods/bhtree",
   "n-body_methods/dynamic_sparse_data_exchange",
   "sparse_linear_algebra/krylov",
   "sparse_linear_algebra/spgemm/mkl_shmem",
   "sparse_linear_algebra/spmv/mkl_shmem",
   "sparse_linear_algebra/spgemm/mkl_xphi",
   "parallel_io",
   "parallel_io/basicMPIIO"
]
